name, description, email
Amazon, E-commerce company, hi@amazon.com
Alibaba, Chinese E-commerce company, hi@alibaba.com
Walmart, Brick and motor company trying to be an e-commerce company, hi@walmart.com
Flipkart, Indian e-commerce company, hi@flipkart.com